
User Configuration
--------------------------------------------------------------------------------
Algorithm                  :     Minimum_Area
Memory Type                :     Single_Port_RAM
Port A Read Width          :     [16]
Port A Write Width         :     [16]
Memory Depth               :     [90000]

----------------------------------------------------------------------------------

Block RAM resource(s) (18K BRAMs)    : [3]
Block RAM resource(s) (36K BRAMs)    : [40]
----------------------------------------------------------------------------------
Clock A Frequency          :         [100]
Port A Enable Rate         :         [100]
Port A Write Rate          :         [50]
----------------------------------------------------------------------------------
Estimated Power for IP     :     16.713664 mW
----------------------------------------------------------------------------------
